Austin Waste EDA
…
Missing Values

Find missing values.

colSums(is.na(df_waste))

##  report_date    load_type    load_time  load_weight dropoff_site   route_type 
##            0            0            0        72335            0            0 
## route_number      load_id 
##            0            0

df_waste %>% 
  filter(is.na(load_weight))

## # A tibble: 72,335 x 8
##    report_date         load_type load_time           load_weight dropoff_site
##    <dttm>              <chr>     <dttm>              <chr>       <chr>       
##  1 2020-12-05 00:00:00 SWEEPING  2020-12-05 00:00:00 <NA>        ONION CREEK 
##  2 2020-12-05 00:00:00 SWEEPING  2020-12-05 00:00:00 <NA>        ONION CREEK 
##  3 2020-12-05 00:00:00 SWEEPING  2020-12-05 00:00:00 <NA>        ONION CREEK 
##  4 2020-12-05 00:00:00 SWEEPING  2020-12-05 00:00:00 <NA>        ONION CREEK 
##  5 2020-12-08 00:00:00 SWEEPING  2020-12-08 13:45:00 <NA>        ONION CREEK 
##  6 2020-12-09 00:00:00 SWEEPING  2020-12-09 00:00:00 <NA>        ONION CREEK 
##  7 2020-12-10 00:00:00 SWEEPING  2020-12-10 00:00:00 <NA>        ONION CREEK 
##  8 2020-12-10 00:00:00 SWEEPING  2020-12-10 00:00:00 <NA>        ONION CREEK 
##  9 2020-12-10 00:00:00 SWEEPING  2020-12-10 00:00:00 <NA>        ONION CREEK 
## 10 2020-12-10 00:00:00 SWEEPING  2020-12-10 00:00:00 <NA>        ONION CREEK 
## #  with 72,325 more rows, and 3 more variables: route_type <chr>,
## #   route_number <chr>, load_id <chr>
…
